RStudio Certified Instructor - Teaching Exam
…
_**Question**_: Which non-Human Star Wars characters are in more than two films?

--

_**Solution**_

```r
* filter(starwars, species != "Human", length(films) > 2)
```

.right[

```
## # A tibble: 48 x 14
##    name    height  mass hair_color skin_color  eye_color birth_year sex   gender
##    <chr>    <int> <dbl> <chr>      <chr>       <chr>          <dbl> <chr> <chr> 
##  1 C-3PO      167    75 <NA>       gold        yellow           112 none  mascu~
##  2 R2-D2       96    32 <NA>       white, blue red               33 none  mascu~
##  3 R5-D4       97    32 <NA>       white, red  red               NA none  mascu~
##  4 Chewba~    228   112 brown      unknown     blue             200 male  mascu~
##  5 Greedo     173    74 <NA>       green       black             44 male  mascu~
##  6 Jabba ~    175  1358 <NA>       green-tan,~ orange           600 herm~ mascu~
##  7 Yoda        66    17 white      green       brown            896 male  mascu~
##  8 IG-88      200   140 none       metal       red               15 none  mascu~
##  9 Bossk      190   113 none       green       red               53 male  mascu~
## 10 Ackbar     180    83 none       brown mott~ orange            41 male  mascu~
## # ... with 38 more rows, and 5 more variables: homeworld <chr>, species <chr>,
## #   films <list>, vehicles <list>, starships <list>
```
…
